{
  "project_info": {
    "project_number": "941767633807",
    "project_id": "projet-android-m1-9c7b2",
    "storage_bucket": "projet-android-m1-9c7b2.appspot.com"
  },
  "client": [
    {
      "client_info": {
        "mobilesdk_app_id": "1:941767633807:android:34e6ab8135a3c3ec06b9fa",
        "android_client_info": {
          "package_name": "com.mi.madaquest"
        }
      },
      "oauth_client": [
        {
          "client_id": "941767633807-26lag0njo5mqojd3l8kbrm9p86rhdkcg.apps.googleusercontent.com",
          "client_type": 1,
          "android_info": {
            "package_name": "com.mi.madaquest",
            "certificate_hash": "5e532b104cdf11dd0c46bca46a9f05214155a0a6"
          }
        },
        {
          "client_id": "941767633807-n1h15hhnpgpbnnnuhqdjmqp6o9o6jrjr.apps.googleusercontent.com",
          "client_type": 3
        }
      ],
      "api_key": [
        {
          "current_key": "AIzaSyB8OWapBJUGp6ORvZ4RDIzIO8o0xm_zPHo"
        }
      ],
      "services": {
        "appinvite_service": {
          "other_platform_oauth_client": [
            {
              "client_id": "941767633807-n1h15hhnpgpbnnnuhqdjmqp6o9o6jrjr.apps.googleusercontent.com",
              "client_type": 3
            }
          ]
        }
      }
    }
  ],
  "configuration_version": "1"
}